{
  "version": 2018072100,
  "url": "https://debconf19.debconf.org/schedule/pentabarf.xml",
  "title": "DebConf 19",
  "start": "2018-07-28",
  "end": "2018-08-05",
  "metadata": {
    "icon": "https://debconf19.debconf.org/static/img/favicon/favicon-196.9a9823c0039b.png",
    "links": [
      {
        "url": "https://debconf19.debconf.org/",
        "title": "Website"
      },
      {
        "url": "https://deb.li/dc19travel",
        "title": "Arrival Info",
        "type": "application/pdf"
      },
      {
        "url": "https://debconf19.debconf.org/static/img/venue-map.d8c8337e8658.png",
        "title": "Venue Map",
        "type": "image/jpeg"
      }
    ]
  }
}
